4 ARIMA 모형 | R에 의한 시계열분석
…
4.3.4 실습 예제

예제 1: gas 자료

자료 파일 gas.csv에는 9초 간격으로 측정된 입력 가스 비율 (rate)에 따른 이산화탄소 배출 농도 (co2)가 입력되어 있다.
변수 rate에 대한 ARIMA 모형을 적합해 보자.

먼저 자료를 입력해서 ts 객체로 변환하고, 시계열 그래프를 작성해 보자.

> library(fpp2)
> gas <- readr::read_csv("https://raw.githubusercontent.com/yjyjpark/TS-with-R/main/Data/gas.csv")
> gas %>% print(n = 5)
# A tibble: 296 x 2
    rate   co2
   <dbl> <dbl>
1 -0.109  53.8
2  0      53.6
3  0.178  53.5
4  0.339  53.5
5  0.373  53.4
# ... with 291 more rows
…
