4 장 ARIMA 모형 | R로 알아가는 시계열분석
…
그림 4.8: 로그 변환된 elec에 계절차분과 1차 차분을 실시한 자료의 시계열 그래프와 ACF

비계절형 ARIMA 모형

예제 1: gas 자료

자료 파일 gas.csv에는 9초 간격으로 측정된 입력 가스 비율 (rate)에 따른 이산화탄소 배출 농도 (co2)가 입력되어 있다.
먼저 자료를 입력해 보자.

gas <- read_csv("https://raw.githubusercontent.com/yjyjpark/TS-with-R/main/Data/gas.csv")
gas %>% 
  print(n = 5)

## # A tibble: 296 × 2
##     rate   co2
##    <dbl> <dbl>
## 1 -0.109  53.8
## 2  0      53.6
## 3  0.178  53.5
## 4  0.339  53.5
## 5  0.373  53.4
## # … with 291 more rows
…
