5 장 회귀모형 | R로 알아가는 시계열분석
…
fit1과 fit2의 적합 결과가 서로 다른 것처럼 보인다. 그러나 추세의 기울기가 다른 것은 모형에서 사용된 추세 변수의 간격이 다르기 때문이다. 즉, 두 모형의 추세 기울기가 4배 차이 나는 이유는 모형 fit1에서 사용된 추세 변수의 간격이 1/4인 반면에 모형 fit2에서 사용된 추세 변수의 간격은 1이기 때문이다.

또한 절편이 다른 것은 두 모형의 기준 범주가 다르며, 사용된 추세 변수의 범위가 다르기 때문이다. 즉, fit1에서 사용된 추세 변수는 1975.00부터 값을 갖고 있지만, fit2에서는 추세 변수가 1부터 값을 갖고 있으며, 함수 seasonaldummy()는 마지막 범주를 기준 범주로 설정하는데, 변수 season은 첫 번째 범주를 기준 범주로 설정하고 있어서, dummy 변수의 구성도 다르게 된다.

두 모형의 적합값을 비교해 보면 실질적으로 같은 모형임을 알 수 있다.

tibble(fit1 = fit1$fitted, fit2 = fit2$fitted)

## # A tibble: 134 × 2
##     fit1  fit2
##    <dbl> <dbl>
##  1  499.  499.
##  2  455.  455.
##  3  467.  467.
##  4  572.  572.
##  5  497.  497.
##  6  452.  452.
##  7  464.  464.
##  8  569.  569.
##  9  494.  494.
## 10  450.  450.
## # … with 124 more rows
…
Fourier series의 모든 변수를 사용한 모형은 dummy 변수를 사용한 모형과 실질적으로 동일한 모형이 된다. fit1과 fit3의 적합값을 비교해 보자.

tibble(fit1 = fit1$fitted, fit3 = fit3$fitted)

## # A tibble: 134 × 2
##     fit1  fit3
##    <dbl> <dbl>
##  1  499.  499.
##  2  455.  455.
##  3  467.  467.
##  4  572.  572.
##  5  497.  497.
##  6  452.  452.
##  7  464.  464.
##  8  569.  569.
##  9  494.  494.
## 10  450.  450.
## # … with 124 more rows
…
