1 장 시계열 그래프 | R로 알아가는 시계열분석
…
그림 1.4: 시계열 그래프에 회귀직선 추가

예제: 다중 시계열 그래프

cbe.txt에는 호주에서 1958년부터 생산된 초콜릿, 맥주 및 전기의 월별 생산량이 입력되어 있다.
파일은 행과 열의 구조를 갖고 있으며, 각 자료는 빈 칸으로 구분되어 있다.
이런 구조의 텍스트 파일을 불러오기 위해서 패키지 readr의 함수 read_table()을 사용하였다.

library(readr)
CBE <- read_table("https://raw.githubusercontent.com/yjyjpark/TS-with-R/main/Data/cbe.txt")
CBE %>% print(n = 3)

## # A tibble: 396 × 3
##    choc  beer  elec
##   <dbl> <dbl> <dbl>
## 1  1451  96.3  1497
## 2  2037  84.4  1463
## 3  2477  91.2  1648
## # … with 393 more rows
…
